%YAML 1.1
%TAG !u! tag:unity3d.com,2011:
--- !u!114 &4906941725954172642
MonoBehaviour:
  m_ObjectHideFlags: 0
  m_CorrespondingSourceObject: {fileID: 0}
  m_PrefabInstance: {fileID: 0}
  m_PrefabAsset: {fileID: 0}
  m_GameObject: {fileID: 8193466725887237073}
  m_Enabled: 1
  m_EditorHideFlags: 0
  m_Script: {fileID: 11500000, guid: b23ddf76199cd284a8656e881aa90c86, type: 3}
  m_Name: 
  m_EditorClassIdentifier: 
--- !u!114 &6332009405620889932
MonoBehaviour:
  m_ObjectHideFlags: 0
  m_CorrespondingSourceObject: {fileID: 0}
  m_PrefabInstance: {fileID: 0}
  m_PrefabAsset: {fileID: 0}
  m_GameObject: {fileID: 8193466725887237073}
  m_Enabled: 1
  m_EditorHideFlags: 0
  m_Script: {fileID: 11500000, guid: d9e96c5a814611045bb4b0e1817568db, type: 3}
  m_Name: 
  m_EditorClassIdentifier: 
  Brother: {fileID: 0}
--- !u!1001 &8377879393966227535
PrefabInstance:
  m_ObjectHideFlags: 0
  serializedVersion: 2
  m_Modification:
    m_TransformParent: {fileID: 0}
    m_Modifications:
    - target: {fileID: 428192125953366942, guid: 7ea0267649c61034c899d258a8d2bcb8,
        type: 3}
      propertyPath: m_Name
      value: DangerBlackHole
      objectReference: {fileID: 0}
    - target: {fileID: 428192125953366942, guid: 7ea0267649c61034c899d258a8d2bcb8,
        type: 3}
      propertyPath: m_TagString
      value: DangerBlackHole
      objectReference: {fileID: 0}
    - target: {fileID: 5302641315159548417, guid: 7ea0267649c61034c899d258a8d2bcb8,
        type: 3}
      propertyPath: m_LocalPosition.x
      value: 0
      objectReference: {fileID: 0}
    - target: {fileID: 5302641315159548417, guid: 7ea0267649c61034c899d258a8d2bcb8,
        type: 3}
      propertyPath: m_LocalPosition.y
      value: 0
      objectReference: {fileID: 0}
    - target: {fileID: 5302641315159548417, guid: 7ea0267649c61034c899d258a8d2bcb8,
        type: 3}
      propertyPath: m_LocalPosition.z
      value: 0
      objectReference: {fileID: 0}
    - target: {fileID: 5302641315159548417, guid: 7ea0267649c61034c899d258a8d2bcb8,
        type: 3}
      propertyPath: m_LocalRotation.x
      value: 0
      objectReference: {fileID: 0}
    - target: {fileID: 5302641315159548417, guid: 7ea0267649c61034c899d258a8d2bcb8,
        type: 3}
      propertyPath: m_LocalRotation.y
      value: 0
      objectReference: {fileID: 0}
    - target: {fileID: 5302641315159548417, guid: 7ea0267649c61034c899d258a8d2bcb8,
        type: 3}
      propertyPath: m_LocalRotation.z
      value: 0
      objectReference: {fileID: 0}
    - target: {fileID: 5302641315159548417, guid: 7ea0267649c61034c899d258a8d2bcb8,
        type: 3}
      propertyPath: m_LocalRotation.w
      value: 1
      objectReference: {fileID: 0}
    - target: {fileID: 5302641315159548417, guid: 7ea0267649c61034c899d258a8d2bcb8,
        type: 3}
      propertyPath: m_RootOrder
      value: 0
      objectReference: {fileID: 0}
    - target: {fileID: 5302641315159548417, guid: 7ea0267649c61034c899d258a8d2bcb8,
        type: 3}
      propertyPath: m_LocalEulerAnglesHint.x
      value: 0
      objectReference: {fileID: 0}
    - target: {fileID: 5302641315159548417, guid: 7ea0267649c61034c899d258a8d2bcb8,
        type: 3}
      propertyPath: m_LocalEulerAnglesHint.y
      value: 0
      objectReference: {fileID: 0}
    - target: {fileID: 5302641315159548417, guid: 7ea0267649c61034c899d258a8d2bcb8,
        type: 3}
      propertyPath: m_LocalEulerAnglesHint.z
      value: 0
      objectReference: {fileID: 0}
    - target: {fileID: 2701452027205769814, guid: 7ea0267649c61034c899d258a8d2bcb8,
        type: 3}
      propertyPath: CurObjectSizeFactor
      value: 0.7
      objectReference: {fileID: 0}
    - target: {fileID: 1206213038587025151, guid: 7ea0267649c61034c899d258a8d2bcb8,
        type: 3}
      propertyPath: m_Radius
      value: 0.09
      objectReference: {fileID: 0}
    - target: {fileID: 3085043896622633402, guid: 7ea0267649c61034c899d258a8d2bcb8,
        type: 3}
      propertyPath: GravityImpact
      value: 4
      objectReference: {fileID: 0}
    - target: {fileID: 3085043896622633402, guid: 7ea0267649c61034c899d258a8d2bcb8,
        type: 3}
      propertyPath: GravityRange
      value: 3
      objectReference: {fileID: 0}
    - target: {fileID: 6653130597791155451, guid: 7ea0267649c61034c899d258a8d2bcb8,
        type: 3}
      propertyPath: m_Sprite
      value: 
      objectReference: {fileID: 21300000, guid: 474bb8ea377428d4297f473c03c077ec,
        type: 3}
    - target: {fileID: 6653130597791155451, guid: 7ea0267649c61034c899d258a8d2bcb8,
        type: 3}
      propertyPath: m_SortingLayerID
      value: -392505477
      objectReference: {fileID: 0}
    - target: {fileID: 6653130597791155451, guid: 7ea0267649c61034c899d258a8d2bcb8,
        type: 3}
      propertyPath: m_SortingLayer
      value: 5
      objectReference: {fileID: 0}
    m_RemovedComponents: []
  m_SourcePrefab: {fileID: 100100000, guid: 7ea0267649c61034c899d258a8d2bcb8, type: 3}
--- !u!1 &8193466725887237073 stripped
GameObject:
  m_CorrespondingSourceObject: {fileID: 428192125953366942, guid: 7ea0267649c61034c899d258a8d2bcb8,
    type: 3}
  m_PrefabInstance: {fileID: 8377879393966227535}
  m_PrefabAsset: {fileID: 0}
