%YAML 1.1
%TAG !u! tag:unity3d.com,2011:
--- !u!78 &1
TagManager:
  serializedVersion: 2
  tags:
  - CollectableSolarPanel
  - CollectableSateliteDish
  - CollectableEngine
  - CollectableRocketSegment
  - Danger
  - MenuController
  - DangerGas
  - DangerBlackHole
  layers:
  - Default
  - TransparentFX
  - Ignore Raycast
  - 
  - Water
  - UI
  - 
  - 
  - Dangers
  - GasField
  - 
  - 
  - 
  - 
  - 
  - 
  - 
  - 
  - 
  - 
  - 
  - 
  - 
  - 
  - 
  - 
  - 
  - 
  - 
  - 
  - 
  - 
  m_SortingLayers:
  - name: Default
    uniqueID: 0
    locked: 0
  - name: Backdrop
    uniqueID: 932352233
    locked: 0
  - name: Background
    uniqueID: 4173898167
    locked: 0
  - name: Particles
    uniqueID: 2107776545
    locked: 0
  - name: SpaceObjectsBack
    uniqueID: 904143515
    locked: 0
  - name: SpaceObjects
    uniqueID: 3902461819
    locked: 0
  - name: ThrusterParticlesBack
    uniqueID: 3962990815
    locked: 0
  - name: Player
    uniqueID: 1631082665
    locked: 0
  - name: ThrusterParticles
    uniqueID: 4038968203
    locked: 0
  - name: Overlay
    uniqueID: 3628083635
    locked: 0
